The Influence of Media on Tesla’s Stock Price
…
elon_musk <- elon_musk %>% distinct()

problems(elon_musk)

## # tibble [0 x 4]
## # ... with 4 variables: row <int>, col <int>, expected <chr>, actual <chr>

(by_date <- elon_musk %>%  separate(time, into = c("year", "month", "day"), sep = "-" ) )

## # A tibble: 833 x 7
##    year  month day   text                           replies retweets likes
##    <chr> <chr> <chr> <chr>                            <int>    <int> <int>
##  1 2017  08    29    Napa Valley Tesla Finnish Tes~     165      677  4900
##  2 2017  09    28    Fly to most places on Earth i~    2700    15000 40000
##  3 2017  09    28    Part 2 https://www.instagram.~     443     2300  8400
##  4 2017  09    28    BFR is capable of transportin~     568     7400 21000
##  5 2017  10    02    GM just announced that it is ~     408     2100  7000
##  6 2017  10    03    Aiming for two rocket landing~    1100     3500 24000
##  7 2017  10    04    I believe I can flyhttps://m.~     784     2600 15000
##  8 2017  10    06    Great initial conversation wi~     705     4400 18000
##  9 2017  10    06    Tesla Semi unveil now Nov 16.~    2100     9700 54000
## 10 2017  10    08    "Jupiter is bighttps://twitte~     685     4500 29000
## # ... with 823 more rows

(daily_res <- by_date %>% group_by(year, month, day) %>% summarise(
  dailyLikes = sum(likes),
  dailyReplies = sum(replies),
  dailyRetweets = sum(retweets)
  )  ) 

## # A tibble: 280 x 6
## # Groups:   year, month [?]
##    year  month day   dailyLikes dailyReplies dailyRetweets
##    <chr> <chr> <chr>      <int>        <int>         <int>
##  1 2017  08    29          4900          165           677
##  2 2017  09    28         69400         3711         24700
##  3 2017  10    02          7000          408          2100
##  4 2017  10    03         24000         1100          3500
##  5 2017  10    04         15000          784          2600
##  6 2017  10    06         72000         2805         14100
##  7 2017  10    08         37600         1185          5800
##  8 2017  10    09         60900         1953         11567
##  9 2017  10    11         35900         1385          5818
## 10 2017  10    14         14000          778          1900
## # ... with 270 more rows
…
#(cnbc_tsla <- cnbc_tsla %>%  distinct()  )

cnbc_tsla <- cnbc_tsla %>% filter(!duplicated(text) == TRUE)
problems(cnbc_tsla)

## # tibble [0 x 4]
## # ... with 4 variables: row <int>, col <int>, expected <chr>, actual <chr>

(cnbc_by_date <- cnbc_tsla %>%  separate(time, into = c("year", "month", "day"), sep = "-" ) )

## # A tibble: 2,244 x 7
##    year  month day   text                           replies retweets likes
##    <chr> <chr> <chr> <chr>                            <int>    <int> <int>
##  1 2016  11    10    Tesla shares downshift into u~       4       10     8
##  2 2016  11    10    Cramer explains why investors~       3        8    12
##  3 2016  11    12    Elon Musk: Robots will take y~      30       55    56
##  4 2016  11    16    Tesla's ludicrously fast car ~       1        9    26
##  5 2016  11    16    How billionaire tech mogul El~       1       16    17
##  6 2016  11    17    BREAKING: Tesla's acquisition~       1       58    45
##  7 2016  11    17    Tesla and SolarCity sharehold~       0       10     7
##  8 2016  11    19    How billionaire tech mogul El~       3       12    19
##  9 2016  11    21    JUST IN: Tesla's acquisition ~       4       33    29
## 10 2016  11    21    Musk got what he wanted in Te~       0       10     6
## # ... with 2,234 more rows

(cnbc_daily_res_table <- cnbc_by_date %>% group_by(year, month, day) %>% summarise(
  c_dailyLikes = sum(likes),
  c_dailyRep = sum(replies),
  c_dailyRet = sum(retweets)
  )  ) 

## # A tibble: 541 x 6
## # Groups:   year, month [?]
##    year  month day   c_dailyLikes c_dailyRep c_dailyRet
##    <chr> <chr> <chr>        <int>      <int>      <int>
##  1 2016  11    10              20          7         18
##  2 2016  11    12              56         30         55
##  3 2016  11    16              43          2         25
##  4 2016  11    17              52          1         68
##  5 2016  11    19              19          3         12
##  6 2016  11    21              35          4         43
##  7 2016  11    22              82          8         62
##  8 2016  11    28              13          1          6
##  9 2016  11    29              15          2         15
## 10 2016  12    01              17          5         17
## # ... with 531 more rows
…
problems(tesla_elon)

## # tibble [0 x 4]
## # ... with 4 variables: row <int>, col <int>, expected <chr>, actual <chr>

(by_date <- tesla_elon %>%  separate(time, into = c("year", "month", "day"), sep = "-" ) )

## # A tibble: 3,360 x 7
##    year  month day   text                           replies retweets likes
##    <chr> <chr> <chr> <chr>                            <int>    <int> <int>
##  1 2011  01    19    Listening to @elonmusk speak ~       0        0     0
##  2 2011  10    14    "@elonmusk\r\n@tesla\r\n#Dead~       0        0     0
##  3 2012  02    09    Thanks @tesla the #modelX is ~       0        0     0
##  4 2012  02    09    New @tesla #modelx looks amaz~       0        1     0
##  5 2012  04    16    more reasons u should b here ~       0        0     0
##  6 2012  05    22    Is @ElonMusk Tony Stark? @Tes~       0        0     0
##  7 2012  05    25    .@elonmusk @tesla & @spacex s~       0        0     0
##  8 2012  06    11    MT @SpaceX The man who's lead~       0        0     0
##  9 2012  06    21    This is so cool!  How they ma~       0        0     0
## 10 2012  06    28    Happy Birthday Mr. @elonmusk ~       0        0     0
## # ... with 3,350 more rows

(daily_res <- by_date %>% group_by(year, month, day) %>% summarise(
  dailyLikes = sum(likes),
  dailyReplies = sum(replies),
  dailyRetweets = sum(retweets)
  )  ) 

## # A tibble: 468 x 6
## # Groups:   year, month [?]
##    year  month day   dailyLikes dailyReplies dailyRetweets
##    <chr> <chr> <chr>      <int>        <int>         <int>
##  1 2011  01    19             0            0             0
##  2 2011  10    14             0            0             0
##  3 2012  02    09             0            0             1
##  4 2012  04    16             0            0             0
##  5 2012  05    22             0            0             0
##  6 2012  05    25             0            0             0
##  7 2012  06    11             0            0             0
##  8 2012  06    21             0            0             0
##  9 2012  06    28             0            0             0
## 10 2012  07    06             0            0             0
## # ... with 458 more rows
…
We found out that there are several days when the number of twitter about Tesla was extremely high. So, we filtered these outliers to see what happened on these dates.

daily_number_price_cnbc%>%arrange(desc(n))

## # A tibble: 541 x 5
## # Groups:   Date [541]
##    Date           n  Open Close   Volume
##    <chr>      <int> <dbl> <dbl>    <int>
##  1 2018-05-03    31  279.  284. 17352100
##  2 2018-08-08    29  369.  370. 24571200
##  3 2018-09-28    27  270.  265. 33649700
##  4 2018-08-07    22  344.  380. 30875800
##  5 2018-05-14    19  303.  292.  7286800
##  6 2018-05-15    19  285.  284.  9519200
##  7 2018-08-02    18  328.  350. 23215000
##  8 2018-09-07    18  260.  263. 22491900
##  9 2018-02-07    17  339.  345   6969200
## 10 2018-05-02    17  299.  301.  8970400
## # ... with 531 more rows

cnbc_tsla%>%filter(time=="2018-05-03")

## # A tibble: 31 x 5
##    time       text                                  replies retweets likes
##    <date>     <chr>                                   <int>    <int> <int>
##  1 2018-05-03 Even in 2006, after his first rocket~       2       12    42
##  2 2018-05-03 Ex-Google exec: 3 traits that make E~       1       10     8
##  3 2018-05-03 Sacconaghi on Musk earnings call: 'T~       6       26    55
##  4 2018-05-03 Tesla's Elon Musk: Uber-Airbnb-type ~       6       21    37
##  5 2018-05-03 Every CEO would love to go off like ~       7        9    30
##  6 2018-05-03 After Tesla's tense earnings call, h~       4        9    12
##  7 2018-05-03 Tesla bull sounds off after conferen~       1        2     5
##  8 2018-05-03 "Tesla's bizarre earnings call is th~       5        4    11
##  9 2018-05-03 Everyone's talking about Elon Musk's~       4        8    17
## 10 2018-05-03 Cramer defends Elon Musk's crazy cal~       3        7    17
## # ... with 21 more rows

cnbc_tsla%>%filter(time=="2018-08-08")

## # A tibble: 29 x 5
##    time       text                                  replies retweets likes
##    <date>     <chr>                                   <int>    <int> <int>
##  1 2018-08-08 "\"This is out there, even for Tesla~       4       14    19
##  2 2018-08-08 Elon Musk's Tesla stock boost may lo~       5       10    11
##  3 2018-08-08 "\"People love Elon Musk because he'~      17       36    78
##  4 2018-08-08 "The \"Squawk on the Street\" news c~       1        8    17
##  5 2018-08-08 Tesla likely to face SEC investigati~       9       27    35
##  6 2018-08-08 Musk says Tesla's new A.I. chip is p~       6       13    30
##  7 2018-08-08 It's been 24 hours and Tesla still h~       7        7    14
##  8 2018-08-08 Cramer's 4 reasons for why Tesla's s~       2        3    11
##  9 2018-08-08 If Elon Musk actually doesn't have t~      10       15    32
## 10 2018-08-08 Musk tweet sparks debate on Tesla le~       0       13    17
## # ... with 19 more rows
…
