data-stock price
…
## Parsed with column specification:
## cols(
##   Date = col_date(format = ""),
##   Open = col_double(),
##   High = col_double(),
##   Low = col_double(),
##   Close = col_double(),
##   `Adj Close` = col_double(),
##   Volume = col_integer()
## )

## # A tibble: 504 x 4
##    Date        Open Close  Volume
##    <chr>      <dbl> <dbl>   <int>
##  1 2016-11-10  191.  185. 6750300
##  2 2016-11-11  184.  189. 3988500
##  3 2016-11-14  188   181. 6542200
##  4 2016-11-15  183.  184. 3902000
##  5 2016-11-16  183.  184. 3430400
##  6 2016-11-17  183.  189. 4887100
##  7 2016-11-18  191.  185. 5210300
##  8 2016-11-21  185.  185. 4361000
##  9 2016-11-22  186.  191. 5603400
## 10 2016-11-23  191.  193. 4885300
## # ... with 494 more rows
…
