twitter_data_analysis
…
#(cnbc_tsla <- cnbc_tsla %>%  distinct()  )

cnbc_tsla <- cnbc_tsla %>% filter(!duplicated(text) == TRUE)
problems(cnbc_tsla)

## # tibble [0  4]
## # ... with 4 variables: row <int>, col <int>, expected <chr>, actual <chr>

(cnbc_by_date <- cnbc_tsla %>%  separate(time, into = c("year", "month", "day"), sep = "-" ) )

## # A tibble: 2,244 x 7
##    year  month day   text                           replies retweets likes
##    <chr> <chr> <chr> <chr>                            <int>    <int> <int>
##  1 2016  11    10    Tesla shares downshift into u       4       10     8
##  2 2016  11    10    Cramer explains why investors       3        8    12
##  3 2016  11    12    Elon Musk: Robots will take y      30       55    56
##  4 2016  11    16    Tesla's ludicrously fast car        1        9    26
##  5 2016  11    16    How billionaire tech mogul El       1       16    17
##  6 2016  11    17    BREAKING: Tesla's acquisition       1       58    45
##  7 2016  11    17    Tesla and SolarCity sharehold       0       10     7
##  8 2016  11    19    How billionaire tech mogul El       3       12    19
##  9 2016  11    21    JUST IN: Tesla's acquisition        4       33    29
## 10 2016  11    21    Musk got what he wanted in Te       0       10     6
## # ... with 2,234 more rows

(cnbc_daily_res_table <- cnbc_by_date %>% group_by(year, month, day) %>% summarise(
  c_dailyLikes = sum(likes),
  c_dailyRep = sum(replies),
  c_dailyRet = sum(retweets)
  )  ) 

## # A tibble: 541 x 6
## # Groups:   year, month [?]
##    year  month day   c_dailyLikes c_dailyRep c_dailyRet
##    <chr> <chr> <chr>        <int>      <int>      <int>
##  1 2016  11    10              20          7         18
##  2 2016  11    12              56         30         55
##  3 2016  11    16              43          2         25
##  4 2016  11    17              52          1         68
##  5 2016  11    19              19          3         12
##  6 2016  11    21              35          4         43
##  7 2016  11    22              82          8         62
##  8 2016  11    28              13          1          6
##  9 2016  11    29              15          2         15
## 10 2016  12    01              17          5         17
## # ... with 531 more rows
…
